Place,Sex,Name,Event,Division,WeightClassKg,Equipment,BodyweightKg,Squat1Kg,Squat2Kg,Squat3Kg,Best3SquatKg,Bench1Kg,Bench2Kg,Bench3Kg,Best3BenchKg,Deadlift1Kg,Deadlift2Kg,Deadlift3Kg,Best3DeadliftKg,TotalKg,BirthYear
DQ,M,Kevin Hogan,B,MR-T2,105,Raw,94.6,,,,,-60,-62.5,-62.5,,,,,,,
DQ,M,Sergy Shadyun,B,M-O,120+,Single-ply,,,,,,-175,-175,-175,,,,,,,1957
1,M,George Whyte,B,MR-O,120,Raw,117.2,,,,,135,140,142.5,142.5,,,,,142.5,1990
1,M,Terry Moon,B,MR-M2a,120+,Raw,133.7,,,,,-102.5,105,-110,105,,,,,105,1961
1,M,Jake Conley,SBD,MR-T1,74,Raw,68,-102.5,102.5,-112.5,102.5,67.5,72.5,-80,72.5,145,147.5,152.5,152.5,327.5,1999
1,M,Michael Berrian,SBD,MR-T1,83,Raw,78.2,135,142.5,150,150,102.5,107.5,110,110,155,172.5,182.5,182.5,442.5,2000
1,M,Thomas Connelly,SBD,MR-T1,105,Raw,97.4,110,117.5,122.5,122.5,65,72.5,-77.5,72.5,130,135,140,140,335,
1,M,Hunter McDonough,SBD,MR-T1,120,Raw,111.8,40,45,-50,45,37.5,40,42.5,42.5,70,75,80,80,167.5,
1,M,Antonio Rodriguez,SBD,MR-T2,66,Raw,65.7,125,137.5,142.5,142.5,90,95,-100,95,147.5,162.5,170,170,407.5,
1,M,Kolbe Chavez,SBD,M-T2,74,Single-ply,73.2,152.5,-160,-160,152.5,97.5,102.5,110,110,175,185,-187.5,185,447.5,1998
2,M,Ethan Durant-Childress,SBD,M-T2,74,Single-ply,68.4,137.5,140,-142.5,140,-85,92.5,95,95,165,170,182.5,182.5,417.5,1998
1,M,Joshua Doman,SBD,MR-Jr,66,Raw,64.8,150,160,-172.5,160,82.5,92.5,-95,92.5,170,182.5,192.5,192.5,445,1992
1,M,Chadsley Wessinger,SBD,MR-Jr,74,Raw,73.5,145,160,-170,160,110,-120,120,120,155,165,-177.5,165,445,
DQ,M,Connor Reger,SBD,MR-Jr,74,Raw,72.7,-180,-180,-180,,-120,-125,125,125,180,182.5,-192.5,182.5,,
1,M,Austin Thompson,SBD,MR-Jr,83,Raw,80.2,172.5,182.5,187.5,187.5,115,122.5,-125,122.5,197.5,205,215,215,525,1992
2,M,Daniel Gutman,SBD,MR-Jr,83,Raw,82.4,-160,170,177.5,177.5,-110,115,-117.5,115,172.5,185,192.5,192.5,485,1996
3,M,Christian Sullender,SBD,MR-Jr,83,Raw,81.7,-125,-125,125,125,102.5,107.5,-110,107.5,185,195,205,205,437.5,
DQ,M,Chase Stenson,SBD,MR-Jr,83,Raw,80,-182.5,-202.5,-227.5,,115,135,-150,135,182.5,200,212.5,212.5,,1994
1,M,Boston Cleek,SBD,MR-Jr,93,Raw,83.8,160,172.5,180,180,112.5,122.5,132.5,132.5,180,192.5,200,200,512.5,
DQ,M,Nolan Wilcock,SBD,MR-Jr,93,Raw,86.1,-210,210,-222.5,210,-122.5,-127.5,-127.5,,217.5,-227.5,-227.5,217.5,,
1,M,Sami Meharzi,SBD,MR-Jr,105,Raw,103.9,175,185,190,190,115,120,-125,120,222.5,235,242.5,242.5,552.5,1995
2,M,Howie Hill,SBD,MR-Jr,105,Raw,99.9,185,-205,-205,185,120,-125,-125,120,235,240,-242.5,240,545,1995
3,M,Adam Fossceco,SBD,MR-Jr,105,Raw,94.4,130,-137.5,137.5,137.5,105,110,115,115,192.5,202.5,-212.5,202.5,455,1994
1,M,Logan Gaudreau,SBD,M-Y1,30,Single-ply,30,25,30,32.5,32.5,15,17.5,-20,17.5,32.5,40,47.5,47.5,97.5,2007
1,M,Ben Stricklin,SBD,M-O,105,Single-ply,98.3,245,262.5,272.5,272.5,147.5,155,165,165,250,-267.5,-272.5,250,687.5,1984
1,M,Brett Crockett,SBD,MR-O,59,Raw,58.8,120,,,120,95,107.5,-110,107.5,135,-185,,135,362.5,1983
1,M,Noah McCreight,SBD,MR-O,66,Raw,62.7,115,122.5,127.5,127.5,87.5,92.5,-97.5,92.5,157.5,162.5,167.5,167.5,387.5,1989
DQ,M,Rodrigo Ocampo,SBD,MR-O,66,Raw,62.3,-125,-130,-130,,85,97.5,-105,97.5,142.5,162.5,170,170,,1985
1,M,Brian Ashbee,SBD,MR-O,74,Raw,73.7,165,180,187.5,187.5,137.5,145,152.5,152.5,192.5,207.5,-222.5,207.5,547.5,1990
2,M,Thach Nguyen,SBD,MR-O,74,Raw,68.5,175,190,-200,190,105,115,-120,115,180,190,195,195,500,
3,M,Leo Meli,SBD,MR-O,74,Raw,71.5,157.5,172.5,-185,172.5,107.5,-117.5,-117.5,107.5,175,190,205,205,485,1980
4,M,Jasper Evans,SBD,MR-O,74,Raw,73.5,142.5,147.5,160,160,117.5,130,-137.5,130,152.5,170,192.5,192.5,482.5,1977
5,M,Anthony Fiore,SBD,MR-O,74,Raw,70.9,125,-135,-145,125,102.5,115,-122.5,115,182.5,190,195,195,435,
DQ,M,Paul McConnell,SBD,MR-O,74,Raw,72.7,145,152.5,157.5,157.5,87.5,92.5,95,95,-155,,,,,1983
1,M,Damon Tholson,SBD,MR-O,83,Raw,81.3,155,170,-180,170,107.5,115,-117.5,115,205,-217.5,-217.5,205,490,1979
2,M,Christopher Carter,SBD,MR-O,83,Raw,81.9,160,165,170,170,100,102.5,105,105,185,192.5,202.5,202.5,477.5,1977
DQ,M,Stephen Zagata,SBD,MR-O,83,Raw,80.4,-205,-205,-205,,-145,-145,,,230,-242.5,-242.5,230,,1991
1,M,Gregory Sambula,SBD,MR-O,93,Raw,89.6,195,-215,-215,195,135,-145,-145,135,227.5,242.5,255,255,585,1986
2,M,Chad Singleton,SBD,MR-O,93,Raw,91.4,167.5,177.5,-187.5,177.5,122.5,130,132.5,132.5,250,272.5,-277.5,272.5,582.5,1993
3,M,Sean Reagan,SBD,MR-O,93,Raw,91.5,187.5,-195,-195,187.5,155,167.5,-177.5,167.5,227.5,-242.5,-245,227.5,582.5,1977
4,M,Jacob Pavey,SBD,MR-O,93,Raw,92,-190,200,210,210,137.5,145,-152.5,145,185,195,205,205,560,
5,M,Trent Tanner,SBD,MR-O,93,Raw,92.3,165,180,190,190,145,-152.5,152.5,152.5,165,195,210,210,552.5,
6,M,Andrew Scharlott,SBD,MR-O,93,Raw,87.3,-150,162.5,175,175,100,115,-120,115,215,240,-262.5,240,530,
7,M,Phil Clough,SBD,MR-O,93,Raw,85.3,165,177.5,185,185,97.5,105,110,110,182.5,197.5,205,205,500,1983
8,M,Ryan Brosmer,SBD,MR-O,93,Raw,88,145,-152.5,155,155,-100,105,110,110,177.5,190,200,200,465,1987
9,M,Russell Wegman,SBD,MR-O,93,Raw,88.9,137.5,147.5,-155,147.5,90,-102.5,-102.5,90,147.5,157.5,167.5,167.5,405,
1,M,Bryce Lewis,SBD,MR-O,105,Raw,97.6,260,275,280,280,187.5,197.5,202.5,202.5,297.5,315,327.5,327.5,810,1987
2,M,Hani Jazayrli,SBD,MR-O,105,Raw,98.5,225,237.5,-247.5,237.5,155,160,162.5,162.5,252.5,272.5,280,280,680,1990
3,M,Matthew Haxmeier,SBD,MR-O,105,Raw,101.4,190,200,210,210,137.5,145,-155,145,210,-222.5,-222.5,210,565,1978
4,M,Jacob Covey,SBD,MR-O,105,Raw,96.1,175,182.5,187.5,187.5,105,112.5,117.5,117.5,-205,205,210,210,515,1989
1,M,David Moore #1,SBD,MR-O,120,Raw,117.3,247.5,260,-272.5,260,167.5,170,-180,170,260,272.5,-280,272.5,702.5,1985
2,M,Jose Ramirez,SBD,MR-O,120,Raw,116.3,235,-242.5,242.5,242.5,-180,-180,180,180,217.5,227.5,245,245,667.5,1990
3,M,George Whyte,SBD,MR-O,120,Raw,117.2,182.5,-192.5,192.5,192.5,135,140,142.5,142.5,265,280,-295,280,615,1990
4,M,Michael Powell,SBD,MR-O,120,Raw,110.3,195,210,220,220,150,157.5,-160,157.5,200,217.5,225,225,602.5,1990
DQ,M,Grady Harkins,SBD,MR-O,120,Raw,109.9,-265,-265,-265,,-172.5,,,,-262.5,,,,,
1,M,Bryan Dewey,SBD,MR-O,120+,Raw,141.2,215,-217.5,217.5,217.5,140,150,160,160,240,250,265,265,642.5,1981
2,M,Dean Kameryn,SBD,MR-O,120+,Raw,132.7,-205,205,-217.5,205,-175,175,-182.5,175,-212.5,212.5,-220,212.5,592.5,
1,M,Robert Odom,SBD,MR-M1a,83,Raw,78.2,150,165,177.5,177.5,110,117.5,-122.5,117.5,175,192.5,200,200,495,1974
1,M,Adam Porter,SBD,MR-M1a,93,Raw,92.2,140,145,-150,145,92.5,-102.5,-102.5,92.5,165,175,185,185,422.5,
1,M,Andrew Stutts,SBD,MR-M1a,105,Raw,100.3,-160,-182.5,182.5,182.5,120,127.5,-137.5,127.5,180,200,-210,200,510,
1,M,Bryan Beeby,SBD,MR-M1a,120,Raw,112,167.5,-175,175,175,152.5,-162.5,165,165,192.5,197.5,207.5,207.5,547.5,1975
1,M,Bryan Welding,SBD,MR-M1b,93,Raw,90.8,135,140,147.5,147.5,97.5,105,-112.5,105,165,172.5,-177.5,172.5,425,1966
1,M,Albert Lopez,SBD,MR-M1b,105,Raw,96.3,197.5,212.5,220,220,142.5,155,-160,155,-220,227.5,-255,227.5,602.5,1967
1,M,Tom Cencich,SBD,M-M2b,83,Single-ply,82.6,60,,,60,175,193,195,195,100,150,182.5,182.5,437.5,1960
1,M,Ron Garofalo,SBD,MR-M2a,83,Raw,80.2,60,,,60,60,,,60,60,,,60,180,
1,M,Lou Fossceco,SBD,MR-M2a,120,Raw,115.9,170,180,182.5,182.5,165,172.5,-177.5,172.5,200,207.5,215,215,570,1964
1,M,Terry Moon,SBD,MR-M2a,120+,Raw,133.7,125,-137.5,-140,125,-102.5,105,-110,105,145,160,165,165,395,1961
1,M,Delvan Worley,SBD,MR-M3b,93,Raw,93,135,150,-155,150,60,70,-75,70,185,200,210,210,430,1949
1,F,Sierra Estep,SBD,FR-T1,63,Raw,62.6,40,45,50,50,32.5,35,-37.5,35,65,70,77.5,77.5,162.5,
1,F,Ariana DeLeon,SBD,FR-T1,84,Raw,72.2,40,45,50,50,27.5,30,-32.5,30,65,70,77.5,77.5,157.5,
1,F,Shayla Atkinson,SBD,FR-T2,57,Raw,56.4,-80,80,-85,80,52.5,-57.5,57.5,57.5,85,90,100,100,237.5,
1,F,Gabrielle Torsell,SBD,FR-T3,57,Raw,54.3,75,80,85,85,35,40,-45,40,75,82.5,87.5,87.5,212.5,
1,F,Sandra Tran,SBD,FR-Jr,43,Raw,36.2,65,-70,-70,65,35,-37.5,-37.5,35,75,77.5,82.5,82.5,182.5,1995
1,F,Chevelle Ehrlick,SBD,FR-Jr,52,Raw,50,82.5,87.5,95,95,52.5,55,-60,55,112.5,122.5,132.5,132.5,282.5,1992
1,F,Racher Orosz,SBD,FR-Jr,63,Raw,62.9,100,110,120,120,55,62.5,-70,62.5,137.5,150,-167.5,150,332.5,
1,F,Shanell Rasmussen,SBD,FR-Jr,72,Raw,67.7,-100,107.5,-117.5,107.5,50,57.5,-62.5,57.5,120,130,137.5,137.5,302.5,1993
1,F,Lauren Millan,SBD,FR-Jr,84,Raw,75.3,122.5,130,135,135,57.5,62.5,65,65,122.5,130,135,135,335,
2,F,Paige McMahan,SBD,FR-Jr,84,Raw,74,62.5,70,-72.5,70,37.5,-42.5,42.5,42.5,85,90,100,100,212.5,
1,F,Harley Jane Carter,SBD,F-Y1,30,Single-ply,23.9,10,12.5,15,15,7.5,10,12.5,12.5,25,30,35,35,62.5,
DQ,F,Nilaja Montgomery,SBD,F-O,84,Single-ply,73.2,97.5,100,102.5,102.5,-60,-62.5,-62.5,,142.5,145,150,150,,1983
1,F,Varvara Lytkina,SBD,FR-O,47,Raw,46.4,62.5,67.5,-72.5,67.5,32.5,37.5,-40,37.5,80,87.5,95,95,200,1984
1,F,Hai Ly Tran,SBD,FR-O,52,Raw,51.9,87.5,-95,97.5,97.5,42.5,47.5,-50,47.5,100,112.5,122.5,122.5,267.5,1986
1,F,Meghan Pellatt,SBD,FR-O,57,Raw,56.5,127.5,135,140,140,70,75,-80,75,-170,170,182.5,182.5,397.5,1984
1,F,Kate Duch,SBD,FR-O,63,Raw,62.4,92.5,105,-107.5,105,47.5,55,57.5,57.5,102.5,115,122.5,122.5,285,1987
2,F,Jennifer Reese,SBD,FR-O,63,Raw,60.3,95,100,-110,100,50,55,-60,55,110,117.5,127.5,127.5,282.5,
3,F,Madeline Scavuzzo,SBD,FR-O,63,Raw,60.9,62.5,-67.5,70,70,45,47.5,52.5,52.5,90,107.5,-115,107.5,230,1991
4,F,Eva McKenzie,SBD,FR-O,63,Raw,63,62.5,-75,75,75,47.5,-52.5,-52.5,47.5,87.5,100,105,105,227.5,1990
5,F,Hannah Roberts,SBD,FR-O,63,Raw,61.7,45,57.5,-65,57.5,37.5,40,-45,40,72.5,87.5,92.5,92.5,190,1989
1,F,Caylen Coxall,SBD,FR-O,72,Raw,71.3,117.5,122.5,-127.5,122.5,65,70,-75,70,132.5,142.5,147.5,147.5,340,1988
2,F,Amy Noraka,SBD,FR-O,72,Raw,68.7,95,100,105,105,65,70,75,75,120,130,-137.5,130,310,1976
3,F,Diane Shields,SBD,FR-O,72,Raw,64.6,-85,85,-95,85,70,75,80,80,105,120,-127.5,120,285,
DQ,F,Michelle Scheri,SBD,FR-O,72,Raw,70.9,-120,-120,-120,,62.5,-70,-72.5,62.5,90,95,105,105,,
1,F,RyAnn Sutton,SBD,FR-O,84,Raw,80.8,80,87.5,95,95,50,57.5,-62.5,57.5,95,105,117.5,117.5,270,
1,F,Sherrice Fox,SBD,FR-O,84+,Raw,128.5,142.5,147.5,150,150,87.5,90,-95,90,152.5,160,175,175,415,1986
2,F,Tarrah Lee,SBD,FR-O,84+,Raw,86,-100,100,105,105,-55,57.5,-62.5,57.5,125,132.5,140,140,302.5,
3,F,Cecillo Weisbrod,SBD,FR-O,84+,Raw,92.3,87.5,95,-105,95,47.5,52.5,57.5,57.5,107.5,115,122.5,122.5,275,1985
4,F,Brandi Hopkins,SBD,FR-O,84+,Raw,96.1,-55,62.5,70,70,-42.5,-50,50,50,87.5,100,110,110,230,
1,F,Jenny Skaufel,SBD,FR-M1,63,Raw,59.8,85,95,-102.5,95,52.5,57.5,-60,57.5,110,127.5,132.5,132.5,285,1972
2,F,Michelle Muraski,SBD,FR-M1,63,Raw,61.5,72.5,80,85,85,47.5,50,52.5,52.5,122.5,132.5,140,140,277.5,1973
3,F,Carrie McCrudden,SBD,FR-M1,63,Raw,61.8,72.5,80,-87.5,80,42.5,-45,-45,42.5,90,95,102.5,102.5,225,
1,F,Libbi Palmer,SBD,FR-M1,84+,Raw,104.6,-95,-95,95,95,62.5,65,67.5,67.5,142.5,150,-165,150,312.5,1970
1,F,Shelby Stricklin,SBD,FR-Y1,35,Raw,33.4,35,40,45,45,20,22.5,25,25,47.5,52.5,57.5,57.5,127.5,2006
1,F,Leslee Torsell,SBD,FR-M2,57,Raw,55.2,65,67.5,70,70,37.5,42.5,-47.5,42.5,77.5,85,92.5,92.5,205,
1,F,Karen Hoge,SBD,FR-M2,84,Raw,79.4,62.5,70,80,80,37.5,42.5,45,45,112.5,125,-137.5,125,250,
1,F,Lynn Morehead,SBD,FR-M2,84+,Raw,111.7,-42.5,-42.5,42.5,42.5,42.5,52.5,-60,52.5,85,105,117.5,117.5,212.5,
1,F,Debby McGovern,SBD,FR-M3,63,Raw,57.1,45,52.5,57.5,57.5,42.5,-50,-50,42.5,100,105,110,110,210,1955
1,F,Kate Walker,SBD,FR-M3,72,Raw,70.8,65,-70,72.5,72.5,47.5,50,-52.5,50,100,107.5,115,115,237.5,1949
