Division,WeightClassKg,Place,Name,Team,BodyweightKg,Best3SquatKg,Best3BenchKg,Best3DeadliftKg,TotalKg,Equipment,Event,Sex
Boys,55.79,1,Daniel Herrera,Navasota,51.8,115.67,86.18,136.08,337.93,Single-ply,SBD,M
Boys,51.71,2,Corely Crouch,Madisonville,43.73,79.38,47.63,86.18,213.19,Single-ply,SBD,M
Boys,51.71,DQ,Garrett George,College Station A&M Cons,44.45,,,,,Single-ply,SBD,M
Boys,51.71,DQ,Ian Campbell,Navasota,49.44,,,,,Single-ply,SBD,M
Boys,55.79,DQ,Leonal Gonzales,Navasota,51.89,,,,,Single-ply,SBD,M
Boys,51.71,DQ,Micha Mock,Navasota,46.81,,,,,Single-ply,SBD,M
Boys,51.71,DQ,Philip Sharp,Robinson,51.62,136.08,77.11,,,Single-ply,SBD,M
Boys,59.87,1,Michael Bartlett,Robinson,59.24,181.44,90.72,181.44,453.59,Single-ply,SBD,M
Boys,59.87,2,Joseph Herrera,Navasota,59.87,163.29,90.72,167.83,421.84,Single-ply,SBD,M
Boys,67.13,3,Eliseo Reyes,Madisonville,59.96,108.86,72.57,145.15,326.59,Single-ply,SBD,M
Boys,59.87,4,Chase Gibson,College Station A&M Cons,59.78,117.93,65.77,111.13,294.84,Single-ply,SBD,M
Boys,59.87,5,Payne Gessner,Navasota,59.51,95.25,61.23,120.2,276.69,Single-ply,SBD,M
Boys,67.13,1,Manuel Rodriguez #4,Robinson,66.68,235.87,113.4,238.14,587.4,Single-ply,SBD,M
Boys,67.13,2,Noah Steptoe,Navasota,66.9,213.19,111.13,204.12,528.44,Single-ply,SBD,M
Boys,67.13,3,Frank Williams,Navasota,63.5,149.69,99.79,158.76,408.23,Single-ply,SBD,M
Boys,67.13,4,Brandon Fox,Navasota,61.23,111.13,72.57,117.93,301.64,Single-ply,SBD,M
Boys,67.13,DQ,David Johnson,Robinson,66.22,,,,,Single-ply,SBD,M
Boys,74.84,1,Devin Levias,College Station A&M Cons,73.94,145.15,90.72,158.76,394.63,Single-ply,SBD,M
Boys,74.84,2,Kevin Ramos,Navasota,74.39,149.69,74.84,149.69,374.21,Single-ply,SBD,M
Boys,74.84,3,Ryan Rios,Navasota,69.76,131.54,97.52,136.08,365.14,Single-ply,SBD,M
Boys,74.84,4,Jarrod Washington,Madisonville,72.35,136.08,83.91,142.88,362.87,Single-ply,SBD,M
Boys,74.84,5,Woogie Powell,Navasota,72.85,149.69,72.57,140.61,362.87,Single-ply,SBD,M
Boys,74.84,6,Hans Sapo,College Station A&M Cons,69.85,133.81,70.31,138.35,342.46,Single-ply,SBD,M
Boys,74.84,7,Efren Garza,Madisonville,69.26,111.13,79.38,145.15,335.66,Single-ply,SBD,M
Boys,74.84,8,Anthony Acosta,Navasota,74.3,120.2,72.57,129.27,322.05,Single-ply,SBD,M
Boys,74.84,DQ,Trevor Williams,College Station A&M Cons,68.49,,,,,Single-ply,SBD,M
Boys,74.84,DQ,Justin Thompson,Madisonville,70.67,122.47,,,,Single-ply,SBD,M
Boys,82.1,1,Jordan Thompson,Robinson,78.74,217.72,136.08,219.99,573.79,Single-ply,SBD,M
Boys,82.1,2,Leonard Abke,Navasota,80.56,215.46,133.81,190.51,539.77,Single-ply,SBD,M
Boys,82.1,3,Larry Reid,Robinson,81.65,174.63,120.2,181.44,476.27,Single-ply,SBD,M
Boys,82.1,4,Keyondrick Philio,Navasota,81.65,165.56,113.4,167.83,446.79,Single-ply,SBD,M
Boys,82.1,5,Tre' Newton,College Station A&M Cons,81.19,138.35,102.06,140.61,381.02,Single-ply,SBD,M
Boys,82.1,6,Edgar Silva,Navasota,78.93,140.61,102.06,136.08,378.75,Single-ply,SBD,M
Boys,89.81,7,Charles Le,Madisonville,82.28,138.35,83.91,154.22,376.48,Single-ply,SBD,M
Boys,82.1,8,Kaleb Keenwright,Navasota,76.2,127.01,72.57,147.42,347,Single-ply,SBD,M
Boys,82.1,9,Nicholas Smotherman,College Station A&M Cons,80.74,106.59,72.57,120.2,299.37,Single-ply,SBD,M
Boys,82.1,10,Jacob Trent,College Station A&M Cons,81.65,113.4,63.5,113.4,290.3,Single-ply,SBD,M
Boys,82.1,11,Jarod Williams,College Station A&M Cons,79.38,131.54,74.84,74.84,281.23,Single-ply,SBD,M
Boys,82.1,12,Michael Morpurgo,College Station A&M Cons,81.65,88.45,61.23,102.06,251.74,Single-ply,SBD,M
Boys,82.1,DQ,Willie Spriggs,Navasota,81.65,,,,,Single-ply,SBD,M
Boys,82.1,DQ,Augustine Morales,Navasota,78.02,,,,,Single-ply,SBD,M
Boys,89.81,1,Austin Cude,Navasota,89.81,272.16,140.61,233.6,646.37,Single-ply,SBD,M
Boys,99.79,2,David Ramirez,Navasota,89.99,254.01,136.08,190.51,580.6,Single-ply,SBD,M
Boys,89.81,3,Dave Harris,Navasota,86.55,217.72,113.4,181.44,512.56,Single-ply,SBD,M
Boys,89.81,4,Trey Brown,Robinson,89.54,188.24,117.93,192.78,498.95,Single-ply,SBD,M
Boys,89.81,5,Ben Roberson,Robinson,84.82,161.03,83.91,161.03,405.97,Single-ply,SBD,M
Boys,89.81,6,Ethan Ripkoski,Navasota,85.73,138.35,72.57,136.08,347,Single-ply,SBD,M
Boys,89.81,7,Jose Arjon,Madisonville,87.09,102.06,68.04,129.27,299.37,Single-ply,SBD,M
Boys,99.79,1,Jacob Dorton,Robinson,94.12,208.65,111.13,208.65,528.44,Single-ply,SBD,M
Boys,99.79,2,Manny Garza,Navasota,91.17,147.42,68.04,154.22,369.68,Single-ply,SBD,M
Boys,99.79,3,Enzo Romano,College Station A&M Cons,90.72,124.74,74.84,113.4,312.98,Single-ply,SBD,M
Boys,99.79,DQ,Shamur Paul-Hill,Navasota,91.85,,,,,Single-ply,SBD,M
Boys,99.79,DQ,Marquez Byrd,Navasota,98.97,,,,,Single-ply,SBD,M
Boys,109.77,DQ,Diego Gutierrez,Robinson,99.97,,,,,Single-ply,SBD,M
Boys,99.79,DQ,Ricky Thompson,Robinson,90.81,,,,,Single-ply,SBD,M
Boys,109.77,1,Cal Bauer,Navasota,106.5,226.8,158.76,222.26,607.81,Single-ply,SBD,M
Boys,109.77,2,Kevin Rodriguez,Navasota,108.18,210.92,149.69,181.44,542.04,Single-ply,SBD,M
Boys,109.77,3,Jordan Smith,College Station A&M Cons,107.5,167.83,95.25,142.88,405.97,Single-ply,SBD,M
Boys,109.77,DQ,Chris Scott,Madisonville,101.7,,,,,Single-ply,SBD,M
Boys,124.74,1,Tyler Lang,Navasota,121.02,190.51,108.86,183.7,483.08,Single-ply,SBD,M
Boys,124.74,2,Cory Spellman,Navasota,118.39,140.61,102.06,136.08,378.75,Single-ply,SBD,M
Boys,124.74,3,Guillermo Rosas,Madisonville,113.04,145.15,72.57,154.22,371.95,Single-ply,SBD,M
Boys,124.74,DQ,Gustavo Bonilla,Robinson,124.65,,,,,Single-ply,SBD,M
Boys,124.74+,1,Corey Ross,Navasota,127.01,272.16,190.51,235.87,698.53,Single-ply,SBD,M
Boys,124.74+,2,Tanner Smith,Robinson,133.36,244.94,151.95,219.99,616.89,Single-ply,SBD,M
Boys,124.74+,3,Angel Molina,Navasota,129.27,226.8,113.4,190.51,530.7,Single-ply,SBD,M
Boys,124.74+,DQ,William Losak,Robinson,146.06,,,,,Single-ply,SBD,M
