Name,WeightClassKg,Division,Sex,AgeRange,Best3SquatKg,Best3BenchKg,Best3DeadliftKg,TotalKg,Event,Equipment,Place
Glynnis Bierria-Ramirez,52,Open,F,,106.59,65.77,124.74,297.1,SBD,Single-ply,1
Delisa McFarlane,60,Open,F,,108.86,52.16,147.42,308.44,SBD,Single-ply,1
J. Carpenter,67.5,Open,F,,120.2,63.5,147.42,331.12,SBD,Single-ply,2
Dawn Allen,67.5,Open,F,,129.27,68.04,142.88,340.19,SBD,Single-ply,1
K. Schaake,52,Open,F,,83.91,58.97,120.2,263.08,SBD,Single-ply,2
A. Zussman,52,Open,F,,70.31,43.09,108.86,222.26,SBD,Single-ply,3
K. Escabedo,82.5,Open,F,,117.93,65.77,129.27,312.98,SBD,Single-ply,1
Phil Brady,125,Masters,M,40-999,292.57,174.63,290.3,757.5,SBD,Single-ply,1
Clay Cannady,90,Masters,M,40-999,238.14,149.69,260.82,648.64,SBD,Single-ply,1
Laszlo Balazs,67.5,Masters,M,40-999,172.37,102.06,210.92,485.34,SBD,Single-ply,1
Jack Kress,100,Masters,M,40-999,181.44,124.74,206.38,512.56,SBD,Single-ply,1
Paul Skeffington,90,Masters,M,40-999,156.49,92.99,185.97,435.45,SBD,Single-ply,2
Brad Hooker,56,Open,M,,90.72,68.04,158.76,317.52,SBD,Single-ply,1
David Lewis,60,Open,M,,204.12,108.86,192.78,505.76,SBD,Single-ply,1
Reuben Trujillo,60,Open,M,,124.74,81.65,181.44,387.82,SBD,Single-ply,2
Darin Heitman,60,Open,M,,124.74,90.72,163.29,378.75,SBD,Single-ply,3
Jonathan Lee,67.5,Open,M,,185.97,140.61,208.65,535.24,SBD,Single-ply,1
Bill Rand,67.5,Open,M,,188.24,108.86,208.65,505.76,SBD,Single-ply,2
Curtis Green,67.5,Open,M,,158.76,133.81,195.04,487.61,SBD,Single-ply,3
Laszlo Balazs,67.5,Open,M,,172.37,102.06,210.92,485.34,SBD,Single-ply,4
Steve DeBuss,67.5,Open,M,,154.22,124.74,181.44,460.4,SBD,Single-ply,5
Dave Hew Len,67.5,Open,M,,156.49,106.59,183.71,446.79,SBD,Single-ply,6
Kelly Miller,67.5,Open,M,,142.88,120.2,170.1,433.18,SBD,Single-ply,7
Bill Bonner,75,Open,M,,233.6,149.69,238.14,621.42,SBD,Single-ply,1
Jim Mestepey,75,Open,M,,219.99,154.22,231.33,605.55,SBD,Single-ply,2
John Torres,75,Open,M,,238.14,136.08,226.8,601.01,SBD,Single-ply,3
Perry Ferguson,75,Open,M,,199.58,147.42,231.33,578.33,SBD,Single-ply,4
Rex Calvert,75,Open,M,,222.26,129.27,224.53,576.06,SBD,Single-ply,5
Zennon Broyles,75,Open,M,,210.92,131.54,217.72,560.19,SBD,Single-ply,6
Greg Johnson,75,Open,M,,199.58,129.27,201.85,530.7,SBD,Single-ply,7
Mark DeYong,75,Open,M,,181.44,122.47,206.38,510.29,SBD,Single-ply,8
Brad Vitale,75,Open,M,,145.15,120.2,154.22,419.57,SBD,Single-ply,10
Randy Jensen,75,Open,M,,165.56,83.91,185.97,435.45,SBD,Single-ply,9
Eric Montoya,82.5,Open,M,,285.76,172.37,285.76,743.89,SBD,Single-ply,1
Dale Greenwald,82.5,Open,M,,238.14,142.88,258.55,639.57,SBD,Single-ply,2
Bode Zietz,82.5,Open,M,,226.8,117.93,249.48,594.21,SBD,Single-ply,3
Mike Dorfman,82.5,Open,M,,213.19,127.01,254.01,594.21,SBD,Single-ply,4
Jack Moss,82.5,Open,M,,226.8,140.61,222.26,589.67,SBD,Single-ply,5
Terry Edwards,82.5,Open,M,,204.12,142.88,226.8,573.8,SBD,Single-ply,6
Dennis James,82.5,Open,M,,192.78,136.08,224.53,553.38,SBD,Single-ply,7
Steve Houtsma,82.5,Open,M,,226.8,111.13,215.46,553.38,SBD,Single-ply,8
M. Frederickson,82.5,Open,M,,183.71,124.74,183.71,492.15,SBD,Single-ply,9
Jim Ponzi,90,Open,M,,260.82,179.17,288.03,728.02,SBD,Single-ply,1
John Hinz,90,Open,M,,272.16,174.63,278.96,725.75,SBD,Single-ply,2
Dale Boies,90,Open,M,,249.48,165.56,249.48,664.51,SBD,Single-ply,3
Clay Cannady,90,Open,M,,238.14,149.69,260.82,648.64,SBD,Single-ply,4
Scott Jantz,90,Open,M,,235.87,136.08,249.48,621.42,SBD,Single-ply,5
Joel Formby,90,Open,M,,215.46,172.37,226.8,614.62,SBD,Single-ply,6
Larry Castro,90,Open,M,,215.46,113.4,238.14,566.99,SBD,Single-ply,7
Richard Cernosek,100,Open,M,,274.42,174.63,326.59,775.64,SBD,Single-ply,1
Mike Tilton,100,Open,M,,249.48,154.22,235.87,639.57,SBD,Single-ply,2
Tom Zapico,100,Open,M,,222.26,158.76,254.01,635.03,SBD,Single-ply,3
Tim Ringgold,100,Open,M,,176.9,127.01,231.33,535.24,SBD,Single-ply,4
Bill Leake,100,Open,M,,185.97,120.2,226.8,532.97,SBD,Single-ply,5
Brad Schnell,100,Open,M,,176.9,120.2,208.65,505.76,SBD,Single-ply,6
Steve Ponzi,110,Open,M,,333.39,235.87,344.73,913.99,SBD,Single-ply,1
Bill Harte,110,Open,M,,294.84,217.72,317.52,830.08,SBD,Single-ply,2
Dave Reithman,110,Open,M,,285.76,183.71,285.76,755.23,SBD,Single-ply,3
Rich Castaneda,110,Open,M,,272.16,163.29,272.16,707.6,SBD,Single-ply,4
Phil Brady,125,Open,M,,292.57,174.63,290.3,757.5,SBD,Single-ply,1
Randy Lane,125,Open,M,,260.82,174.63,276.69,712.14,SBD,Single-ply,2
Chuck Mastrini,125,Open,M,,290.3,163.29,258.55,712.14,SBD,Single-ply,3
Ken Smith,125,Open,M,14-19,263.08,163.29,272.16,698.53,SBD,Single-ply,4
Martin Benson,125,Open,M,,226.8,172.37,276.69,675.85,SBD,Single-ply,5
Bob Owen,125,Open,M,,233.6,181.44,240.4,655.44,SBD,Single-ply,6
Craig Snyder,125+,Open,M,,233.6,181.44,240.4,655.44,SBD,Single-ply,1
