Name,WeightClassKg,Division,Sex,Age,BodyweightKg,AgeRange,Best3SquatKg,Squat1Kg,Squat2Kg,Squat3Kg,Best3BenchKg,Bench2Kg,Best3DeadliftKg,Deadlift1Kg,Deadlift2Kg,Deadlift3Kg,TotalKg,Event,Equipment,Place
Nancy Menear,,Open,F,35,46.72,,95.25,,,,49.9,,131.54,,,,276.69,SBD,Single-ply,4
D. Trump,,Open,F,,41.73,,81.65,,,,38.56,,95.25,,,,215.46,SBD,Single-ply,11
Pam Crisp,,Open,F,,48.08,,95.25,,,,45.36,,99.79,,,,240.4,SBD,Single-ply,8
G. Bogdanski,,Open,F,,47.63,,79.38,,,,38.56,,99.79,,,,217.72,SBD,Single-ply,10
Patty Ritchey,,Open,F,26,54.88,,127.01,120.2,127.01,,61.24,61.24,136.08,,,,324.32,SBD,Single-ply,1
Susan Crawford,,Open,F,,57.61,,108.86,,,,65.77,,131.54,,,,306.18,SBD,Single-ply,2
M. Morris,,Open,F,,52.16,,83.91,,,,61.24,,106.59,,,,251.74,SBD,Single-ply,7
L. Sherman,,Open,F,,54.43,,99.79,,,,47.63,,108.86,,,,256.28,SBD,Single-ply,6
Carolyn Fitzwater,,Open,F,,59.42,,90.72,,,,43.09,,129.27,,,,263.08,SBD,Single-ply,5
T. Condio,,Open,F,,67.13,,88.45,,,,56.7,,136.08,,,,281.23,SBD,Single-ply,3
Rene Spicher,,Open,F,,55.79,,65.77,,,,52.16,,108.86,,,,226.8,SBD,Single-ply,9
Antoishek,,Open,F,,53.98,,56.7,,,,29.48,,79.38,,,,165.56,SBD,Single-ply,12
M. Tretter,52,Open,M,,,,117.93,,,,72.57,,122.47,,,,312.98,SBD,Single-ply,1
Ken Blackburn,56,Open,M,,,,136.08,,,,92.99,,167.83,,,,396.89,SBD,Single-ply,1
D. Hubman,56,Open,M,,,,136.08,,,,65.77,,136.08,,,,337.93,SBD,Single-ply,2
R. Hency,56,Open,M,,,,74.84,,,,56.7,,111.13,,,,242.67,SBD,Single-ply,3
V. Scalisi,60,Open,M,,,,170.1,,,,97.52,,154.22,,,,421.84,SBD,Single-ply,1
M. Wingerter,60,Open,M,,,,129.27,,,,77.11,,181.44,,,,387.82,SBD,Single-ply,2
A. Metzinger,60,Open,M,,,,142.88,,,,72.57,,151.95,,,,367.41,SBD,Single-ply,3
G. Grenon,67.5,Open,M,,,,190.51,,,,131.54,,201.85,,,,523.9,SBD,Single-ply,1
Mike Powall,67.5,Open,M,,,,181.44,,,,127.01,,199.58,,,,508.02,SBD,Single-ply,2
Ron Kinsinger,67.5,Open,M,,,,179.17,,,,117.93,,190.51,,,,487.61,SBD,Single-ply,3
W. Morris,67.5,Open,M,,,,165.56,,,,106.59,,192.78,,,,464.93,SBD,Single-ply,4
J. Rathbun,67.5,Open,M,,,,163.29,,,,92.99,,185.97,,,,442.25,SBD,Single-ply,5
B. Civic,67.5,Open,M,,,,147.42,,,,102.06,,188.24,,,,437.72,SBD,Single-ply,6
T. Stanton,67.5,Open,M,,,,147.42,,,,83.91,,181.44,,,,412.77,SBD,Single-ply,7
M. Coon,67.5,Open,M,,,,136.08,,,,86.18,,167.83,,,,390.09,SBD,Single-ply,8
S. St Clair,67.5,Open,M,,,,124.74,,,,72.57,,163.29,,,,360.61,SBD,Single-ply,9
Dave Blackburn,75,Open,M,30,,,235.87,,,,138.35,,233.6,,,,607.81,SBD,Single-ply,1
Jim DeMaske,75,Open,M,,,,229.06,,,,131.54,,226.8,,,,587.4,SBD,Single-ply,2
Scott Croft,75,Open,M,,,14-19,208.65,,,,113.4,,231.33,,,,553.38,SBD,Single-ply,3
J. Tretter,75,Open,M,,,,208.65,,,,129.27,,208.65,,,,546.58,SBD,Single-ply,4
Marty Taylor,75,Open,M,19,,,190.51,,,,156.49,,197.31,,,,544.31,SBD,Single-ply,5
Mike Sopata,75,Open,M,,,,197.31,,,,122.47,,204.12,,,,523.9,SBD,Single-ply,6
J. Siegel,75,Open,M,,,,183.71,,,,106.59,,217.72,,,,508.02,SBD,Single-ply,7
Dave Dodson,75,Open,M,,,,192.78,,,,108.86,,204.12,,,,505.76,SBD,Single-ply,8
Bugs Bayer,75,Open,M,,,,192.78,,,,99.79,,208.65,,,,501.22,SBD,Single-ply,9
V. Chicarell,75,Open,M,,,,163.29,,,,97.52,,210.92,,,,471.74,SBD,Single-ply,10
Jeff Trout,82.5,Open,M,,,,244.94,,,,147.42,,260.82,,,,653.17,SBD,Single-ply,1
G. Shanholtz,82.5,Open,M,,,,226.8,,,,149.69,,240.4,,,,616.89,SBD,Single-ply,2
M. Harrison,82.5,Open,M,,,,226.8,,,,124.74,,224.53,,,,576.06,SBD,Single-ply,3
J. Harrington,82.5,Open,M,,,,208.65,,,,131.54,,215.46,,,,555.65,SBD,Single-ply,4
B. Zabrucky,82.5,Open,M,,,,197.31,,,,138.35,,195.04,,,,530.7,SBD,Single-ply,5
D. Dague,82.5,Open,M,,,,181.44,,,,108.86,,229.06,,,,519.36,SBD,Single-ply,6
Dom Herbst,90,Open,M,,,,265.35,,,,161.03,,299.37,,,,725.75,SBD,Single-ply,1
K. Lovett,90,Open,M,,,,265.35,,,,163.29,,249.48,,,,678.12,SBD,Single-ply,2
Russell Jenness,90,Open,M,,,,233.6,,,,181.44,,260.82,,,,675.85,SBD,Single-ply,3
Joe Valchine,90,Open,M,,,,260.82,,,,151.95,,256.28,,,,669.05,SBD,Single-ply,4
T. Wojcicki,90,Open,M,,,,226.8,,,,140.61,,260.82,,,,628.23,SBD,Single-ply,5
C. Pizzella,90,Open,M,,,,213.19,,,,142.88,,226.8,,,,582.87,SBD,Single-ply,6
J. Haffey,90,Open,M,,,,183.71,,,,122.47,,204.12,,,,510.29,SBD,Single-ply,7
R. Mattison,90,Open,M,,,,158.76,,,,127.01,,197.31,,,,483.08,SBD,Single-ply,8
R. Evans,90,Open,M,,,,167.83,,,,129.27,,181.44,,,,478.54,SBD,Single-ply,9
Monte Rosentrater,100,Open,M,,,,272.16,,,,172.37,,276.69,,,,721.21,SBD,Single-ply,1
D. Dick,100,Open,M,,,,217.72,,,,163.29,,256.28,,,,637.3,SBD,Single-ply,2
Nick Blyshak,100,Open,M,,,,238.14,,,,142.88,,254.01,,,,635.03,SBD,Single-ply,3
G. Collins,100,Open,M,,,,254.01,,,,147.42,,222.26,,,,623.69,SBD,Single-ply,4
M. Weaver,100,Open,M,,,,231.33,,,,149.69,,219.99,,,,601.01,SBD,Single-ply,5
K. Caruso,100,Open,M,,,,195.04,,,,149.69,,226.8,,,,571.53,SBD,Single-ply,6
D. Wagner,100,Open,M,,,,197.31,,,,122.47,,238.14,,,,557.92,SBD,Single-ply,7
R. Olinger,100,Open,M,,,,204.12,,,,117.93,,215.46,,,,537.51,SBD,Single-ply,8
S. Maleski,100,Open,M,,,,183.71,,,,115.67,,195.04,,,,494.42,SBD,Single-ply,9
E. Johnsonbaugh,100,Open,M,,,,170.1,,,,99.79,,185.97,,,,455.86,SBD,Single-ply,10
M. Adore,110,Open,M,,,,247.21,,,,140.61,,229.06,,,,616.89,SBD,Single-ply,1
O. Keel,111,Open,M,,,,226.8,,,,181.44,,192.78,,,,601.01,SBD,Single-ply,1
M. Bowman,112,Open,M,,,,204.12,,,,149.69,,217.72,,,,571.53,SBD,Single-ply,1
S. Hanik,113,Open,M,,,,192.78,,,,129.27,,247.21,,,,569.26,SBD,Single-ply,1
R. Smeal,114,Open,M,,,,204.12,,,,140.61,,204.12,,,,548.85,SBD,Single-ply,1
Brian Lachell,115,Open,M,,,,204.12,,,,117.93,,199.58,,,,521.63,SBD,Single-ply,1
Tom Giordani,125,Open,M,,,,272.16,,,,188.24,,294.84,,,,755.23,SBD,Single-ply,1
R. Radcliffe,125,Open,M,,,,265.35,,,,192.78,,258.55,,,,716.68,SBD,Single-ply,2
B. Miller,125,Open,M,,,,260.82,,,,151.95,,226.8,,,,639.57,SBD,Single-ply,3
Fred Hnatt,125,Open,M,41,,,206.38,,,,151.95,,208.65,,,,566.99,SBD,Single-ply,4
Mike Hall,125+,Open,M,27,,,353.46,,,353.46,226.8,,317.52,294.84,317.52,-328.85,897.77,SBD,Single-ply,1
